Lab 6 - Text Mining
…
Question 1: What specialties do we have?

mt_samples %>%
  count(medical_specialty, sort = TRUE)

# A tibble: 40 × 2
   medical_specialty                 n
   <chr>                         <int>
 1 Surgery                        1103
 2 Consult - History and Phy.      516
 3 Cardiovascular / Pulmonary      372
 4 Orthopedic                      355
 5 Radiology                       273
 6 General Medicine                259
 7 Gastroenterology                230
 8 Neurology                       223
 9 SOAP / Chart / Progress Notes   166
10 Obstetrics / Gynecology         160
# ℹ 30 more rows
…
# Rename columns
names(top_words_per_specialty) <- gsub("wordword", "word", names(top_words_per_specialty))
names(top_words_per_specialty) <- gsub("nn", "n", names(top_words_per_specialty))

# Viewing the result
top_words_per_specialty

# A tibble: 40 × 11
# Groups:   medical_specialty [40]
   medical_specialty  word_1 word_2 word_3 word_4 word_5   n_1   n_2   n_3   n_4
   <chr>              <chr>  <chr>  <chr>  <chr>  <chr>  <int> <int> <int> <int>
 1 Allergy / Immunol… histo… noted  patie… aller… nasal     38    23    22    21
 2 Autopsy            left   inch   neck   anter… body      83    59    55    47
 3 Bariatrics         patie… histo… weight surge… gastr…    62    50    36    34
 4 Cardiovascular / … left   patie… artery coron… histo…  1550  1516  1085   681
 5 Chiropractic       pain   patie… dr     histo… left     187    85    66    56
 6 Consult - History… patie… histo… normal pain   mg      3046  2820  1368  1153
 7 Cosmetic / Plasti… patie… proce… breast skin   incis…   116    98    95    88
 8 Dentistry          patie… tooth  teeth  left   proce…   195   108   104    94
 9 Dermatology        patie… skin   cm     left   proce…   101   101    77    58
10 Diets and Nutriti… patie… weight carbo… day    food      43    40    37    28
# ℹ 30 more rows
# ℹ 1 more variable: n_5 <int>
…
